,SOURCES,MOCOPO,generic
index,False,False,False
station,False,False,False
date,True,True,True
Particle size,False,False,False
sample ID,False,False,False
labels,False,False,False
0Cresol,False,False,False
1+3-MethFluo,False,False,False
1+3-methylfluoranthene,False,False,False
"1,2 dichloroethane",False,False,False
"1,2dichloroethane",False,False,False
1-MethFluo,False,False,False
1-MethPhe,False,False,False
1-MethPyr,False,False,False
1-Methylnaphtalene,False,False,False
1-methylfluoranthene,False,False,False
1-methylfluorene,False,False,False
1-methylphenanthrene,False,False,False
1-methylpyrene,False,False,False
1.4dichlorobenzene,False,False,False
123trimethylbenzene,False,False,False
1245tetramethylbenzene,False,False,False
124trimethylbenzene,False,False,False
12dichloropropane,False,False,False
135trimethylbenzene,False,False,False
17a(H)-21b(H)-22R-Bishomohopane,False,False,False
17a(H)-21b(H)-22R-Homohopane,False,False,False
17a(H)-21b(H)-22R-Trishomohopane,False,False,False
17a(H)-21b(H)-22S-Bishomohopane,False,False,False
17a(H)-21b(H)-22S-Homohopane,False,False,False
17a(H)-21b(H)-22S-Trishomohopane,False,False,False
17a(H)-21b(H)-Hopane,False,False,False
17a(H)-21b(H)-Norhopane,False,False,False
17a(H)-Trisnorhopane,False,False,False
"2,5-DM benzaldéhyde",False,False,False
2-MethAn,False,False,False
2-MethNa,False,False,False
2-MethPhe,False,False,False
2-butanone,False,False,False
2-methylanthracene,False,False,False
2-methylfluoran.,False,False,False
2-methylnaphta.,False,False,False
2-methylnaphthalene,False,False,False
2-methylphenanthrene,False,False,False
24diméthylpentane,False,False,False
2ethyltoluene,False,False,False
3-MBTCA,False,False,True
3-MethChr,False,False,False
3-MethPhe,False,False,False
3-etyltoluene,False,False,False
3-methyl-5-nitrocatechol,False,False,False
3-methyl-6-nitrocatechol,False,False,False
3-methylchrysene,False,False,False
3-methylphenanthrene,False,False,False
3M5,False,False,False
3M6,False,False,False
3m5nitrocatechol,False,False,False
3m6nitrocatechol,False,False,False
3methyl4nitrocatechol,False,False,False
3methylcatechol,False,False,False
4-MethPyr,False,False,False
4-ethyltoluene,False,False,False
4-methyl-5-nitrocatechol,False,False,False
4-methylcatechol,False,False,False
4-methylpyrene,False,False,False
4-methylsyringol,False,False,True
4-propenylsyringol,False,False,True
4/9 methylphenanthrene,False,False,False
4/9-MethPhe,False,False,False
4M5,False,False,False
4m5nitrocatechol,False,False,False
4nitrocatechol,False,False,False
4nitroguaiacol,False,False,False
Ace,False,True,True
Acenaphtene,False,False,False
Acenaphtylene,False,False,False
Acetosyringone,False,False,True
Acetovanillone,False,False,True
Acide Homovanillique,False,False,False
Acide Syringique,False,False,False
Acide Vanillique,False,False,False
Acroléïne,False,False,False
Acétaldéhyde,False,False,False
Acétone,False,False,False
Adipic,False,False,True
Ag,False,False,False
Al,True,True,True
Alkanes Sum,False,False,True
An,False,True,True
An.1,False,False,False
Arabitol,True,False,True
As,True,False,True
Azelaic,False,False,True
BC,False,False,False
BCff,False,False,False
BCwb,False,False,False
"BNT(1,2)",False,False,True
"BNT(2,1)",False,False,True
"BNT(2,3)",False,False,True
"BPT(2,1)",False,False,True
Ba,True,True,True
BaA,False,True,True
BaA.1,False,False,False
BaP,False,True,True
BaP.1,False,False,False
BbF,False,True,True
BbF.1,False,False,False
BbkF sum,False,False,False
Be,False,False,False
BeP,False,True,True
BeP.1,False,False,False
Benzaldéhyde,False,False,False
Benzo(j)fluorant.,False,False,False
Benzoic,False,False,False
BghiP,False,True,True
BghiP.1,False,False,False
Bi,False,False,False
BkF,False,True,True
BkF.1,False,False,False
Br,False,False,False
Butyraldéhyde,False,False,False
C11,False,True,True
C12,False,True,True
C13,False,True,True
C14,False,True,True
C15,False,True,True
C16,False,True,True
C17,False,True,True
C18,False,True,True
C19,False,True,True
C20,False,True,True
C21,False,True,True
C22,False,True,True
C23,False,True,True
C24,False,True,True
C25,False,True,True
C26,False,True,True
C27,False,True,True
C28,False,True,True
C29,False,True,True
C30,False,True,True
C31,False,True,True
C32,False,True,True
C33,False,True,True
C34,False,True,True
C35,False,True,True
C36,False,True,True
C37,False,True,True
C38,False,True,True
C39,False,True,True
C40,False,True,True
CO2,False,False,False
Ca,False,False,True
Ca2+,True,True,True
Cd,True,False,True
Ce,True,False,True
Cellulose,False,False,True
Chloroforme,False,False,False
Cholesterol,False,False,True
Chr,False,True,True
Chr.1,False,False,False
Citraconic,False,False,True
Cl-,True,True,True
Co,True,False,True
Coniferylaldehyde,False,False,True
Cor,False,True,True
Cor.1,False,False,False
Cr,True,True,True
Crotonaldéhyde,False,False,False
Cs,True,False,True
Cu,True,True,True
bigD17Oerr(NO3),False,False,False
bigD17Oscc(NO3),False,False,False
DBT,False,False,False
DBahA,False,True,True
DBahA.1,False,False,False
DMPT,False,False,False
"DNT(2,1)",False,False,True
DOC,False,False,False
Dy,False,False,False
EC,True,True,True
Er,False,False,False
Erythritol,False,False,False
Ethylbenzène,False,False,False
Eu,False,False,False
FFM,False,False,False
Fe,True,True,True
Fla,False,True,True
Fluoranthene,False,False,False
Fluorene,False,False,False
Flux  (veh/h),False,False,False
For,False,True,True
Formaldéhyde,False,False,False
Fumaric,False,False,False
Ga,False,False,False
Galactosan,False,False,True
Gd,False,False,False
Ge,False,False,False
Glucose,False,False,True
Glutaric,False,False,True
Glycerol,False,False,False
Glycolic,False,False,False
Glyo,False,False,False
Glyoxylic,False,False,False
Guaiacylacetone,False,False,True
H29,False,False,False
H30,False,False,False
HHA,False,False,False
HP1,False,True,True
HP10,False,True,True
HP2,False,True,True
HP3,False,True,True
HP4,False,True,True
HP5,False,True,True
HP6,False,True,True
HP7,False,True,True
HP8,False,True,True
HP9,False,True,True
HULIS,False,False,False
Hamovanillic,False,False,True
Hexaldéhyde,False,False,False
Hf,False,False,False
Hg,False,False,False
Ho,False,False,False
Hopane Sum,False,False,True
Hydroxybutyric,False,False,False
IP,False,True,True
IP.1,False,False,False
Inositol,False,False,False
Isophtalic,False,False,False
Isovaléraldéhyde,False,False,False
K,False,False,True
K+,True,True,True
Ketobutyric,False,False,False
L-Rhamnose,False,False,False
La,True,False,True
Lactic,False,False,False
Levoglucosan,True,True,True
Li,True,False,True
Lu,False,False,False
MBTCA,False,False,False
MC Sum,False,False,True
MIK,False,False,False
MNC Sum,False,False,True
MSA,True,False,True
Maleic,False,False,True
Malic,False,False,False
Malonic,False,False,False
Mannitol,True,False,True
Mannosan,True,True,True
Mannose,False,False,False
MethChr/BenzoAn,False,False,False
MethFluo/Pyr,False,False,False
MethFluo/Pyr.1,False,False,False
MethPAH Sum,False,False,True
Methlysuccinic,False,False,False
Methoxyphenol Sum,False,False,True
Methyl/sulfur PAH Sum,False,False,False
MethylPAH Sum,False,False,False
MethylSuccinic,False,False,True
Methylglutaric,False,False,True
Methylmalonic,False,False,False
Methylnitrocatechol Sum,False,False,False
Methylsyringol,False,False,False
Mg,False,False,True
Mg2+,True,True,True
Mn,True,True,True
Mo,True,False,True
Monosaccharides anhydrides,False,False,False
NH4+,True,True,True
NO,False,False,False
NO2,False,False,False
NO2-,False,False,False
NO3-,True,True,True
NOx,False,False,False
Na,False,False,True
Na+,True,True,True
Naphtalene,False,False,False
Nb,False,False,False
Nb Bus,False,False,False
Nb Bus EURO_0,False,False,False
Nb Bus EURO_1,False,False,False
Nb Bus EURO_2,False,False,False
Nb Bus EURO_3,False,False,False
Nb Bus EURO_4,False,False,False
Nb PL ,False,False,False
Nb PL Euro_0,False,False,False
Nb PL Euro_1,False,False,False
Nb PL Euro_2,False,False,False
Nb PL Euro_3,False,False,False
Nb PL Euro_4,False,False,False
Nb PL Euro_5,False,False,False
Nb VL ,False,False,False
Nb VL AUTRE,False,False,False
Nb VL Euro_0,False,False,False
Nb VL Euro_1,False,False,False
Nb VL Euro_2,False,False,False
Nb VL Euro_3,False,False,False
Nb VL Euro_4,False,False,False
Nb VL _Euro_5,False,False,False
Nd,False,False,False
Ni,True,False,True
O3,False,False,False
OC,True,True,True
OP_AA_m3,False,False,False
OP_AA_µg,False,False,False
OP_DCFH_m3,False,False,False
OP_DCFH_µg,False,False,False
OP_DTT_m3,False,False,False
OP_DTT_µg,False,False,False
Oxalate,False,False,True
Oxoheptanedioic,False,False,True
P,False,False,False
PAH Sum,False,False,True
PAHs Sum,False,False,True
PL,False,False,False
PM10,True,True,True
PM10 Gravimétrie,False,False,False
PM10 corrigées,False,True,False
PM10 n.v.,False,False,False
PM10AASQA,False,False,False
PM2.5,False,False,False
PM2.5 corrigées,False,True,False
PM2.5AASQA,False,False,False
PM_µg/m3,False,False,False
PMrecons,True,True,True
PMreconsType,False,False,False
PO43-,False,False,False
Pb,True,False,True
Pd,False,False,True
Phe,False,True,True
Phe.1,False,False,False
"PheT(4,5)",False,False,False
Phtalic,False,False,True
Phytane,False,False,False
Pimelic,False,False,False
Pinic,False,False,True
Pinonic,False,False,False
Polyols,False,False,True
Pr,False,False,False
Pristane,False,False,False
Propenylsyringol,False,False,False
Propionaldéhyde,False,False,False
Pt,False,False,True
Pyr,False,True,True
Pyr.1,False,False,False
R-H31,False,False,False
R-H32,False,False,False
R-H33,False,False,False
RR,False,False,False
Rb,True,False,True
Ret,False,True,True
Ret.1,False,False,False
Rhamnose,False,False,False
S,False,False,False
S-H31,False,False,False
S-H32,False,False,False
S-H33,False,False,False
SD_OP_AA_m3,False,False,False
SD_OP_AA_µg,False,False,False
SD_OP_DCFH_m3,False,False,False
SD_OP_DCFH_µg,False,False,False
SD_OP_DTT_m3,False,False,False
SD_OP_DTT_µg,False,False,False
SO2,False,False,False
SO42-,True,True,True
SO42- recons,False,False,False
Sb,True,True,True
Sc,False,False,True
Se,True,False,True
Sebacic,False,False,True
Sinapyl aldehyde,False,False,True
Sm,False,False,False
Sn,True,True,True
Somme HAP,False,False,False
Sorbitol,True,False,True
Sr,True,True,True
Styrène,False,False,False
Suberic,False,False,True
Succinic,False,False,True
Sum BbkF,False,False,False
Sum HAP part,False,False,False
Sum métaux,False,False,False
Sum polyols,False,False,False
Syringic acid,False,False,True
Syringol,False,False,True
Syringyl acetone,False,False,True
T,False,False,False
TC,False,False,False
TMPD,False,False,False
TS,False,False,False
TV,False,False,False
Ta,False,False,False
Tartaric,False,False,False
Tb,False,False,False
Terephtalic,False,False,False
Th,False,False,False
Threalose,False,False,False
Ti,True,True,True
Tl,True,False,True
Tm,False,False,False
Tmax,False,False,False
Tmean,False,False,False
Tmin,False,False,False
Toluène,False,False,False
Tri,False,True,True
Trisnorneohopane,False,False,False
U,False,False,False
Unnamed: 121,False,False,False
V,True,False,True
VL,False,False,False
Valéraldéhyde,False,False,False
Vanillic,False,False,True
Vanilline,False,False,True
W,False,False,False
WSOC,False,False,False
Xylitol,False,False,False
Y,False,False,False
Yb,False,False,False
Zn,True,True,True
Zr,True,False,True
alpha pinene,False,False,False
benzene,False,False,False
betapinene,False,False,False
big serie,False,False,False
bromodichloromethane,False,False,False
commentary,False,False,False
commentary_PO,False,False,False
commentary_chem,False,False,False
composite IC-sucre sample ID,False,False,False
composite metals sample ID,False,False,False
d15Ncal(NH3),False,False,False
d15Nerr(NH3),False,False,False
d15Nerr(NO3),False,False,False
d15Nscc(NO3),False,False,False
d17Oerr(NO3),False,False,False
d17Oscc(NO3),False,False,False
d18Oerr(NO3),False,False,False
d18Oscc(NO3),False,False,False
date IC-sucres,False,False,False
date end,False,False,False
date exacte,False,False,False
date metals,False,False,False
date start,False,False,False
date.analyse,False,False,False
decanal,False,False,False
decane,False,False,False
dibromochloromethane,False,False,False
dodecane,False,False,False
duration,False,False,False
ethylacetate,False,False,False
filter size,False,False,False
heptane,False,False,False
hexadecane,False,False,False
isooctane,False,False,False
limonene,False,False,False
m+p-xylene,False,False,False
m-tolualdéhyde,False,False,False
mCresol,False,False,False
methylchrysene/benzoanthracene,False,False,False
methylenechloride,False,False,False
methylfluoranthene/pyrene,False,False,False
methylfluoranthene/pyrene.1,False,False,False
muNH4agr,False,False,False
muNH4bio,False,False,False
muNH4veh,False,False,False
n-hexane,False,False,False
nonanal,False,False,False
nonane,False,False,False
o-tolualdéhyde,False,False,False
o-xylène,False,False,False
octane,False,False,False
omp-tolualdéhyde,False,False,False
p-tolualdéhyde,False,False,False
pCresol,False,False,False
pentadecane,False,False,False
programme,False,False,False
sdNH4agr,False,False,False
sdNH4bio,False,False,False
sdNH4veh,False,False,False
styrene,False,False,False
subsample,False,False,False
tetrachloroethylene,False,False,False
tetradecane,False,False,False
trichloroethylene,False,False,False
tridecane,False,False,False
undecane,False,False,False
ville,False,False,False
volume,False,False,False
volume metals,False,False,False
